{
  "project_info": {
    "project_number": "956185549171",
    "firebase_url": "https://my-angularfirebase.firebaseio.com",
    "project_id": "my-angularfirebase",
    "storage_bucket": "my-angularfirebase.appspot.com"
  },
  "client": [
    {
      "client_info": {
        "mobilesdk_app_id": "1:956185549171:android:3d3093f57a92e3cbc48d06",
        "android_client_info": {
          "package_name": "com.kakao.sdk.flutter.example"
        }
      },
      "oauth_client": [
        {
          "client_id": "956185549171-1qt044ok3d8lh1ra8oasliuvj9a8etau.apps.googleusercontent.com",
          "client_type": 3
        }
      ],
      "api_key": [
        {
          "current_key": "AIzaSyCz7IQgefzDZZSZJzYeHqNZN6Hs5L9c9Jo"
        }
      ],
      "services": {
        "appinvite_service": {
          "other_platform_oauth_client": [
            {
              "client_id": "956185549171-1qt044ok3d8lh1ra8oasliuvj9a8etau.apps.googleusercontent.com",
              "client_type": 3
            },
            {
              "client_id": "956185549171-t64vao58p9ire26pljim2il899tnpvkf.apps.googleusercontent.com",
              "client_type": 2,
              "ios_info": {
                "bundle_id": "com.stanix.flutter"
              }
            }
          ]
        }
      }
    },
    {
      "client_info": {
        "mobilesdk_app_id": "1:956185549171:android:72a095d10bf80f04c48d06",
        "android_client_info": {
          "package_name": "com.stanix.adobe"
        }
      },
      "oauth_client": [
        {
          "client_id": "956185549171-1qt044ok3d8lh1ra8oasliuvj9a8etau.apps.googleusercontent.com",
          "client_type": 3
        }
      ],
      "api_key": [
        {
          "current_key": "AIzaSyCz7IQgefzDZZSZJzYeHqNZN6Hs5L9c9Jo"
        }
      ],
      "services": {
        "appinvite_service": {
          "other_platform_oauth_client": [
            {
              "client_id": "956185549171-1qt044ok3d8lh1ra8oasliuvj9a8etau.apps.googleusercontent.com",
              "client_type": 3
            },
            {
              "client_id": "956185549171-t64vao58p9ire26pljim2il899tnpvkf.apps.googleusercontent.com",
              "client_type": 2,
              "ios_info": {
                "bundle_id": "com.stanix.flutter"
              }
            }
          ]
        }
      }
    },
    {
      "client_info": {
        "mobilesdk_app_id": "1:956185549171:android:9ceef2437b78dbccc48d06",
        "android_client_info": {
          "package_name": "com.stanix.compound"
        }
      },
      "oauth_client": [
        {
          "client_id": "956185549171-1qt044ok3d8lh1ra8oasliuvj9a8etau.apps.googleusercontent.com",
          "client_type": 3
        }
      ],
      "api_key": [
        {
          "current_key": "AIzaSyCz7IQgefzDZZSZJzYeHqNZN6Hs5L9c9Jo"
        }
      ],
      "services": {
        "appinvite_service": {
          "other_platform_oauth_client": [
            {
              "client_id": "956185549171-1qt044ok3d8lh1ra8oasliuvj9a8etau.apps.googleusercontent.com",
              "client_type": 3
            },
            {
              "client_id": "956185549171-t64vao58p9ire26pljim2il899tnpvkf.apps.googleusercontent.com",
              "client_type": 2,
              "ios_info": {
                "bundle_id": "com.stanix.flutter"
              }
            }
          ]
        }
      }
    }
  ],
  "configuration_version": "1"
}